{
    "CallerReference": "etiqueta-distribution-2019-06-13",
    "Aliases": {
      "Quantity": 1,
      "Items": ["etiqueta.alliedapp.com.br"]
    },
    "DefaultRootObject": "login.html",
    "Origins": {
      "Quantity": 1,
      "Items": [
        {
          "Id": "etiqueta.alliedapp.com.br-001",
          "DomainName": "etiqueta.alliedapp.com.br.s3-website-us-east-1.amazonaws.com",
          "CustomOriginConfig": {
            "HTTPPort": 80,
            "HTTPSPort": 443,
            "OriginProtocolPolicy": "http-only"
          }
        }
      ]
    },
    "DefaultCacheBehavior": {
      "TargetOriginId": "etiqueta.alliedapp.com.br-001",
      "ForwardedValues": {
        "QueryString": true,
        "Cookies": {
          "Forward": "none"
        }
      },
      "TrustedSigners": {
        "Enabled": false,
        "Quantity": 0
      },
      "ViewerProtocolPolicy": "allow-all",
      "MinTTL": 3600
    },
    "CacheBehaviors": {
      "Quantity": 0
    },
    "Comment": "",
    "Logging": {
      "Enabled": false,
      "IncludeCookies": true,
      "Bucket": "",
      "Prefix": ""
    },
    "PriceClass": "PriceClass_All",
    "Enabled": true,
    "ViewerCertificate": {
        "CloudFrontDefaultCertificate": false,
        "ACMCertificateArn": "arn:aws:acm:us-east-1:244167363211:certificate/1ef2c6d1-a6f1-4ed4-96aa-4ee91742e212",
        "SSLSupportMethod": "sni-only",
        "MinimumProtocolVersion": "TLSv1_2016"
    }
}